-- Merging decision tree log ---
manifest
ADDED from D:\APP ANDROID\MyAppTXX\app\src\main\AndroidManifest.xml:2:1-62:12
INJECTED from D:\APP ANDROID\MyAppTXX\app\src\main\AndroidManifest.xml:2:1-62:12
INJECTED from D:\APP ANDROID\MyAppTXX\app\src\main\AndroidManifest.xml:2:1-62:12
INJECTED from D:\APP ANDROID\MyAppTXX\app\src\main\AndroidManifest.xml:2:1-62:12
MERGED from [com.rengwuxian.materialedittext:library:2.1.4] C:\Users\thanh\.gradle\caches\transforms-2\files-2.1\a7ded2818e88cf8fd4c703434d9a4d3e\jetified-library-2.1.4\AndroidManifest.xml:2:1-10:12
MERGED from [uk.co.chrisjenx:calligraphy:2.3.0] C:\Users\thanh\.gradle\caches\transforms-2\files-2.1\d911d43c104de0e3492f48813bf60503\jetified-calligraphy-2.3.0\AndroidManifest.xml:2:1-13:12
MERGED from [com.google.android.material:material:1.1.0] C:\Users\thanh\.gradle\caches\transforms-2\files-2.1\6029c1862846be4a7ec1743d4d20ec64\material-1.1.0\AndroidManifest.xml:17:1-24:12
MERGED from [androidx.appcompat:appcompat:1.1.0] C:\Users\thanh\.gradle\caches\transforms-2\files-2.1\6c5a1a33c151bf1b1b969a4997bc8337\appcompat-1.1.0\AndroidManifest.xml:17:1-24:12
MERGED from [androidx.constraintlayout:constraintlayout:1.1.3] C:\Users\thanh\.gradle\caches\transforms-2\files-2.1\eea79921d0082cd3162f25540a57b311\constraintlayout-1.1.3\AndroidManifest.xml:2:1-11:12
MERGED from [com.google.firebase:firebase-messaging:17.3.4] C:\Users\thanh\.gradle\caches\transforms-2\files-2.1\8d94571bbf30a7f5ca7abf3fc84cdac7\jetified-firebase-messaging-17.3.4\AndroidManifest.xml:17:1-37:12
MERGED from [com.firebase:geofire-android:3.0.0] C:\Users\thanh\.gradle\caches\transforms-2\files-2.1\9e118f6f3e91a3f7edff278991bf9110\jetified-geofire-android-3.0.0\AndroidManifest.xml:2:1-13:12
MERGED from [com.google.firebase:firebase-database:19.3.0] C:\Users\thanh\.gradle\caches\transforms-2\files-2.1\a858482f0d85511048b88d680e761880\jetified-firebase-database-19.3.0\AndroidManifest.xml:15:1-38:12
MERGED from [com.google.firebase:firebase-auth:19.3.1] C:\Users\thanh\.gradle\caches\transforms-2\files-2.1\a965e02da0dc74b3cb82526fa169fefe\jetified-firebase-auth-19.3.1\AndroidManifest.xml:17:1-42:12
MERGED from [androidx.cardview:cardview:1.0.0] C:\Users\thanh\.gradle\caches\transforms-2\files-2.1\923cd97b32caebf2e6b5629d421a10e9\cardview-1.0.0\AndroidManifest.xml:17:1-22:12
MERGED from [com.github.d-max:spots-dialog:1.1] C:\Users\thanh\.gradle\caches\transforms-2\files-2.1\c0876c682c272d3d05c4d5397b598da0\jetified-spots-dialog-1.1\AndroidManifest.xml:2:1-13:12
MERGED from [com.github.glomadrian:MaterialAnimatedSwitch:1.1] C:\Users\thanh\.gradle\caches\transforms-2\files-2.1\ba1aace17fefb63a2d4084f22cfa4dea\jetified-MaterialAnimatedSwitch-1.1\AndroidManifest.xml:2:1-16:12
MERGED from [com.google.android.gms:play-services-maps:15.0.0] C:\Users\thanh\.gradle\caches\transforms-2\files-2.1\fed3b02998b45e6e983973a7406a1a6f\jetified-play-services-maps-15.0.0\AndroidManifest.xml:17:1-32:12
MERGED from [com.google.android.gms:play-services-location:15.0.0] C:\Users\thanh\.gradle\caches\transforms-2\files-2.1\e163bec3b148ac458f30ee9a44645a43\jetified-play-services-location-15.0.0\AndroidManifest.xml:2:1-9:12
MERGED from [com.google.firebase:firebase-iid:17.0.4] C:\Users\thanh\.gradle\caches\transforms-2\files-2.1\c62e8bba72fc9fd55aa45a73c8d1f033\jetified-firebase-iid-17.0.4\AndroidManifest.xml:17:1-59:12
MERGED from [com.google.firebase:firebase-measurement-connector:17.0.1] C:\Users\thanh\.gradle\caches\transforms-2\files-2.1\7aaeb47292f851b2eea944b39316575e\jetified-firebase-measurement-connector-17.0.1\AndroidManifest.xml:17:1-25:12
MERGED from [com.google.firebase:firebase-auth-interop:19.0.0] C:\Users\thanh\.gradle\caches\transforms-2\files-2.1\68dd590321da53844fc859861b272820\jetified-firebase-auth-interop-19.0.0\AndroidManifest.xml:2:1-10:12
MERGED from [com.google.firebase:firebase-common:19.3.0] C:\Users\thanh\.gradle\caches\transforms-2\files-2.1\3deb10f8139ef5717b3d54ada2a19ca4\jetified-firebase-common-19.3.0\AndroidManifest.xml:15:1-39:12
MERGED from [com.google.firebase:firebase-database-collection:17.0.1] C:\Users\thanh\.gradle\caches\transforms-2\files-2.1\fa3d7eac296077651560ac3933490b85\jetified-firebase-database-collection-17.0.1\AndroidManifest.xml:2:1-9:12
MERGED from [com.google.firebase:firebase-iid-interop:16.0.1] C:\Users\thanh\.gradle\caches\transforms-2\files-2.1\27bd78a871984e9d6a40fde5607996ac\jetified-firebase-iid-interop-16.0.1\AndroidManifest.xml:2:1-10:12
MERGED from [com.google.android.gms:play-services-base:17.1.0] C:\Users\thanh\.gradle\caches\transforms-2\files-2.1\75e7c473eccef2b3a0eec97fa3a7825b\jetified-play-services-base-17.1.0\AndroidManifest.xml:17:1-29:12
MERGED from [com.google.android.gms:play-services-tasks:17.0.0] C:\Users\thanh\.gradle\caches\transforms-2\files-2.1\9f753adbd07fbe4faac50d5081095fbc\jetified-play-services-tasks-17.0.0\AndroidManifest.xml:2:1-9:12
MERGED from [com.google.android.gms:play-services-places-placereport:15.0.1] C:\Users\thanh\.gradle\caches\transforms-2\files-2.1\8e41facb8177a5dd71154ca2ce914207\jetified-play-services-places-placereport-15.0.1\AndroidManifest.xml:17:1-24:12
MERGED from [com.google.android.gms:play-services-stats:16.0.1] C:\Users\thanh\.gradle\caches\transforms-2\files-2.1\6ad0995a5931a1fbf66951bfa062db2b\jetified-play-services-stats-16.0.1\AndroidManifest.xml:2:1-9:12
MERGED from [com.google.android.gms:play-services-basement:17.0.0] C:\Users\thanh\.gradle\caches\transforms-2\files-2.1\164bb505b81f338baa0db13edd04c1d1\jetified-play-services-basement-17.0.0\AndroidManifest.xml:17:1-28:12
MERGED from [androidx.viewpager2:viewpager2:1.0.0] C:\Users\thanh\.gradle\caches\transforms-2\files-2.1\130b3e7299d7b916415d9bf24d660e86\viewpager2-1.0.0\AndroidManifest.xml:17:1-24:12
MERGED from [androidx.fragment:fragment:1.1.0] C:\Users\thanh\.gradle\caches\transforms-2\files-2.1\33864422152bb0af748686115ae1452a\fragment-1.1.0\AndroidManifest.xml:17:1-24:12
MERGED from [androidx.appcompat:appcompat-resources:1.1.0] C:\Users\thanh\.gradle\caches\transforms-2\files-2.1\0a5d1ddc01de78a90b6c8d414c9a6e9c\jetified-appcompat-resources-1.1.0\AndroidManifest.xml:17:1-24:12
MERGED from [androidx.drawerlayout:drawerlayout:1.0.0] C:\Users\thanh\.gradle\caches\transforms-2\files-2.1\43eb2d2e7e68e27bf73363f2db15d7be\drawerlayout-1.0.0\AndroidManifest.xml:17:1-22:12
MERGED from [androidx.coordinatorlayout:coordinatorlayout:1.1.0] C:\Users\thanh\.gradle\caches\transforms-2\files-2.1\558f92460b4271919299f451301533e5\coordinatorlayout-1.1.0\AndroidManifest.xml:17:1-24:12
MERGED from [androidx.transition:transition:1.2.0] C:\Users\thanh\.gradle\caches\transforms-2\files-2.1\3981cec19a17bddac768d603ddda69c3\transition-1.2.0\AndroidManifest.xml:17:1-24:12
MERGED from [androidx.vectordrawable:vectordrawable-animated:1.1.0] C:\Users\thanh\.gradle\caches\transforms-2\files-2.1\51d331fcd57936d004e0494487c5a706\vectordrawable-animated-1.1.0\AndroidManifest.xml:17:1-24:12
MERGED from [androidx.vectordrawable:vectordrawable:1.1.0] C:\Users\thanh\.gradle\caches\transforms-2\files-2.1\e28f2eab0eeac32ad77aa73d51ae8294\vectordrawable-1.1.0\AndroidManifest.xml:17:1-24:12
MERGED from [androidx.viewpager:viewpager:1.0.0] C:\Users\thanh\.gradle\caches\transforms-2\files-2.1\0e9d2ae9f4afac9ea1a0a04f8350196c\viewpager-1.0.0\AndroidManifest.xml:17:1-22:12
MERGED from [androidx.loader:loader:1.0.0] C:\Users\thanh\.gradle\caches\transforms-2\files-2.1\d3e38a4ee70dd28ca131c75161280cc6\loader-1.0.0\AndroidManifest.xml:17:1-22:12
MERGED from [androidx.activity:activity:1.0.0] C:\Users\thanh\.gradle\caches\transforms-2\files-2.1\c99f94f95913e12a34477cc68c241232\jetified-activity-1.0.0\AndroidManifest.xml:17:1-24:12
MERGED from [androidx.recyclerview:recyclerview:1.1.0] C:\Users\thanh\.gradle\caches\transforms-2\files-2.1\d4b67913328dae4e98aac9b3260d763c\recyclerview-1.1.0\AndroidManifest.xml:17:1-24:12
MERGED from [androidx.customview:customview:1.0.0] C:\Users\thanh\.gradle\caches\transforms-2\files-2.1\fdcb254cec2eda61cf9d0e6a91c1273a\customview-1.0.0\AndroidManifest.xml:17:1-22:12
MERGED from [androidx.core:core:1.1.0] C:\Users\thanh\.gradle\caches\transforms-2\files-2.1\bcfc0b80df78591183083cc148e1cf2c\core-1.1.0\AndroidManifest.xml:17:1-26:12
MERGED from [androidx.cursoradapter:cursoradapter:1.0.0] C:\Users\thanh\.gradle\caches\transforms-2\files-2.1\8a144bf192d6484f4ce6240d7fa27967\cursoradapter-1.0.0\AndroidManifest.xml:17:1-22:12
MERGED from [com.google.firebase:firebase-components:16.0.0] C:\Users\thanh\.gradle\caches\transforms-2\files-2.1\debd70e42d2284fe791e96c9c76092fa\jetified-firebase-components-16.0.0\AndroidManifest.xml:15:1-23:12
MERGED from [androidx.localbroadcastmanager:localbroadcastmanager:1.0.0] C:\Users\thanh\.gradle\caches\transforms-2\files-2.1\b3eceaf6e5cc2df4bb865a5445be6293\localbroadcastmanager-1.0.0\AndroidManifest.xml:17:1-22:12
MERGED from [androidx.versionedparcelable:versionedparcelable:1.1.0] C:\Users\thanh\.gradle\caches\transforms-2\files-2.1\fef3bcbc3f86e0f441f90d2d23ba3f3b\versionedparcelable-1.1.0\AndroidManifest.xml:17:1-27:12
MERGED from [androidx.lifecycle:lifecycle-runtime:2.1.0] C:\Users\thanh\.gradle\caches\transforms-2\files-2.1\10c582a6c9d10d357ca6c4650e6b6d1c\lifecycle-runtime-2.1.0\AndroidManifest.xml:17:1-22:12
MERGED from [androidx.lifecycle:lifecycle-viewmodel:2.1.0] C:\Users\thanh\.gradle\caches\transforms-2\files-2.1\40211b48e1fd6597c46fa7fb3bdc27f4\lifecycle-viewmodel-2.1.0\AndroidManifest.xml:17:1-22:12
MERGED from [androidx.savedstate:savedstate:1.0.0] C:\Users\thanh\.gradle\caches\transforms-2\files-2.1\a2ae4022237bbaf198d3d05422530051\jetified-savedstate-1.0.0\AndroidManifest.xml:17:1-24:12
MERGED from [androidx.interpolator:interpolator:1.0.0] C:\Users\thanh\.gradle\caches\transforms-2\files-2.1\9f8a366e57dff09c00193bb4b84f0896\interpolator-1.0.0\AndroidManifest.xml:17:1-22:12
MERGED from [androidx.lifecycle:lifecycle-livedata:2.0.0] C:\Users\thanh\.gradle\caches\transforms-2\files-2.1\744e890fd9c2229fd55f0f204e895827\lifecycle-livedata-2.0.0\AndroidManifest.xml:17:1-22:12
MERGED from [androidx.lifecycle:lifecycle-livedata-core:2.0.0] C:\Users\thanh\.gradle\caches\transforms-2\files-2.1\72cbc39fa25a246d7e646058ccbab8e7\lifecycle-livedata-core-2.0.0\AndroidManifest.xml:17:1-22:12
MERGED from [androidx.arch.core:core-runtime:2.0.0] C:\Users\thanh\.gradle\caches\transforms-2\files-2.1\a19056003d7a5f2bc9cc665fd561b346\core-runtime-2.0.0\AndroidManifest.xml:17:1-22:12
INJECTED from D:\APP ANDROID\MyAppTXX\app\src\main\AndroidManifest.xml:2:1-62:12
INJECTED from D:\APP ANDROID\MyAppTXX\app\src\main\AndroidManifest.xml:2:1-62:12
INJECTED from D:\APP ANDROID\MyAppTXX\app\src\main\AndroidManifest.xml:2:1-62:12
	package
		ADDED from D:\APP ANDROID\MyAppTXX\app\src\main\AndroidManifest.xml:3:5-31
		INJECTED from D:\APP ANDROID\MyAppTXX\app\src\main\AndroidManifest.xml
		INJECTED from D:\APP ANDROID\MyAppTXX\app\src\main\AndroidManifest.xml
	android:versionName
		INJECTED from D:\APP ANDROID\MyAppTXX\app\src\main\AndroidManifest.xml
		ADDED from D:\APP ANDROID\MyAppTXX\app\src\main\AndroidManifest.xml:2:1-62:12
		INJECTED from D:\APP ANDROID\MyAppTXX\app\src\main\AndroidManifest.xml
	android:versionCode
		INJECTED from D:\APP ANDROID\MyAppTXX\app\src\main\AndroidManifest.xml
		ADDED from D:\APP ANDROID\MyAppTXX\app\src\main\AndroidManifest.xml:2:1-62:12
		INJECTED from D:\APP ANDROID\MyAppTXX\app\src\main\AndroidManifest.xml
	xmlns:android
		ADDED from D:\APP ANDROID\MyAppTXX\app\src\main\AndroidManifest.xml:2:11-69
uses-permission#android.permission.ACCESS_FINE_LOCATION
ADDED from D:\APP ANDROID\MyAppTXX\app\src\main\AndroidManifest.xml:9:5-79
	android:name
		ADDED from D:\APP ANDROID\MyAppTXX\app\src\main\AndroidManifest.xml:9:22-76
uses-permission#android.permission.ACCESS_COARSE_LOCATION
ADDED from D:\APP ANDROID\MyAppTXX\app\src\main\AndroidManifest.xml:10:5-81
	android:name
		ADDED from D:\APP ANDROID\MyAppTXX\app\src\main\AndroidManifest.xml:10:22-78
uses-permission#android.permission.INTERNET
ADDED from D:\APP ANDROID\MyAppTXX\app\src\main\AndroidManifest.xml:11:5-67
MERGED from [com.firebase:geofire-android:3.0.0] C:\Users\thanh\.gradle\caches\transforms-2\files-2.1\9e118f6f3e91a3f7edff278991bf9110\jetified-geofire-android-3.0.0\AndroidManifest.xml:11:5-67
MERGED from [com.firebase:geofire-android:3.0.0] C:\Users\thanh\.gradle\caches\transforms-2\files-2.1\9e118f6f3e91a3f7edff278991bf9110\jetified-geofire-android-3.0.0\AndroidManifest.xml:11:5-67
MERGED from [com.google.firebase:firebase-database:19.3.0] C:\Users\thanh\.gradle\caches\transforms-2\files-2.1\a858482f0d85511048b88d680e761880\jetified-firebase-database-19.3.0\AndroidManifest.xml:26:5-67
MERGED from [com.google.firebase:firebase-database:19.3.0] C:\Users\thanh\.gradle\caches\transforms-2\files-2.1\a858482f0d85511048b88d680e761880\jetified-firebase-database-19.3.0\AndroidManifest.xml:26:5-67
MERGED from [com.google.android.gms:play-services-maps:15.0.0] C:\Users\thanh\.gradle\caches\transforms-2\files-2.1\fed3b02998b45e6e983973a7406a1a6f\jetified-play-services-maps-15.0.0\AndroidManifest.xml:24:5-67
MERGED from [com.google.android.gms:play-services-maps:15.0.0] C:\Users\thanh\.gradle\caches\transforms-2\files-2.1\fed3b02998b45e6e983973a7406a1a6f\jetified-play-services-maps-15.0.0\AndroidManifest.xml:24:5-67
MERGED from [com.google.firebase:firebase-iid:17.0.4] C:\Users\thanh\.gradle\caches\transforms-2\files-2.1\c62e8bba72fc9fd55aa45a73c8d1f033\jetified-firebase-iid-17.0.4\AndroidManifest.xml:23:5-67
MERGED from [com.google.firebase:firebase-iid:17.0.4] C:\Users\thanh\.gradle\caches\transforms-2\files-2.1\c62e8bba72fc9fd55aa45a73c8d1f033\jetified-firebase-iid-17.0.4\AndroidManifest.xml:23:5-67
	android:name
		ADDED from D:\APP ANDROID\MyAppTXX\app\src\main\AndroidManifest.xml:11:22-64
application
ADDED from D:\APP ANDROID\MyAppTXX\app\src\main\AndroidManifest.xml:14:5-60:19
MERGED from [uk.co.chrisjenx:calligraphy:2.3.0] C:\Users\thanh\.gradle\caches\transforms-2\files-2.1\d911d43c104de0e3492f48813bf60503\jetified-calligraphy-2.3.0\AndroidManifest.xml:11:5-20
MERGED from [uk.co.chrisjenx:calligraphy:2.3.0] C:\Users\thanh\.gradle\caches\transforms-2\files-2.1\d911d43c104de0e3492f48813bf60503\jetified-calligraphy-2.3.0\AndroidManifest.xml:11:5-20
MERGED from [com.google.android.material:material:1.1.0] C:\Users\thanh\.gradle\caches\transforms-2\files-2.1\6029c1862846be4a7ec1743d4d20ec64\material-1.1.0\AndroidManifest.xml:22:5-20
MERGED from [com.google.android.material:material:1.1.0] C:\Users\thanh\.gradle\caches\transforms-2\files-2.1\6029c1862846be4a7ec1743d4d20ec64\material-1.1.0\AndroidManifest.xml:22:5-20
MERGED from [androidx.constraintlayout:constraintlayout:1.1.3] C:\Users\thanh\.gradle\caches\transforms-2\files-2.1\eea79921d0082cd3162f25540a57b311\constraintlayout-1.1.3\AndroidManifest.xml:9:5-20
MERGED from [androidx.constraintlayout:constraintlayout:1.1.3] C:\Users\thanh\.gradle\caches\transforms-2\files-2.1\eea79921d0082cd3162f25540a57b311\constraintlayout-1.1.3\AndroidManifest.xml:9:5-20
MERGED from [com.google.firebase:firebase-messaging:17.3.4] C:\Users\thanh\.gradle\caches\transforms-2\files-2.1\8d94571bbf30a7f5ca7abf3fc84cdac7\jetified-firebase-messaging-17.3.4\AndroidManifest.xml:22:5-35:19
MERGED from [com.google.firebase:firebase-messaging:17.3.4] C:\Users\thanh\.gradle\caches\transforms-2\files-2.1\8d94571bbf30a7f5ca7abf3fc84cdac7\jetified-firebase-messaging-17.3.4\AndroidManifest.xml:22:5-35:19
MERGED from [com.google.firebase:firebase-database:19.3.0] C:\Users\thanh\.gradle\caches\transforms-2\files-2.1\a858482f0d85511048b88d680e761880\jetified-firebase-database-19.3.0\AndroidManifest.xml:28:5-36:19
MERGED from [com.google.firebase:firebase-database:19.3.0] C:\Users\thanh\.gradle\caches\transforms-2\files-2.1\a858482f0d85511048b88d680e761880\jetified-firebase-database-19.3.0\AndroidManifest.xml:28:5-36:19
MERGED from [com.google.firebase:firebase-auth:19.3.1] C:\Users\thanh\.gradle\caches\transforms-2\files-2.1\a965e02da0dc74b3cb82526fa169fefe\jetified-firebase-auth-19.3.1\AndroidManifest.xml:23:5-40:19
MERGED from [com.google.firebase:firebase-auth:19.3.1] C:\Users\thanh\.gradle\caches\transforms-2\files-2.1\a965e02da0dc74b3cb82526fa169fefe\jetified-firebase-auth-19.3.1\AndroidManifest.xml:23:5-40:19
MERGED from [com.github.d-max:spots-dialog:1.1] C:\Users\thanh\.gradle\caches\transforms-2\files-2.1\c0876c682c272d3d05c4d5397b598da0\jetified-spots-dialog-1.1\AndroidManifest.xml:11:5-20
MERGED from [com.github.d-max:spots-dialog:1.1] C:\Users\thanh\.gradle\caches\transforms-2\files-2.1\c0876c682c272d3d05c4d5397b598da0\jetified-spots-dialog-1.1\AndroidManifest.xml:11:5-20
MERGED from [com.github.glomadrian:MaterialAnimatedSwitch:1.1] C:\Users\thanh\.gradle\caches\transforms-2\files-2.1\ba1aace17fefb63a2d4084f22cfa4dea\jetified-MaterialAnimatedSwitch-1.1\AndroidManifest.xml:11:5-14:19
MERGED from [com.github.glomadrian:MaterialAnimatedSwitch:1.1] C:\Users\thanh\.gradle\caches\transforms-2\files-2.1\ba1aace17fefb63a2d4084f22cfa4dea\jetified-MaterialAnimatedSwitch-1.1\AndroidManifest.xml:11:5-14:19
MERGED from [com.google.android.gms:play-services-maps:15.0.0] C:\Users\thanh\.gradle\caches\transforms-2\files-2.1\fed3b02998b45e6e983973a7406a1a6f\jetified-play-services-maps-15.0.0\AndroidManifest.xml:30:5-20
MERGED from [com.google.android.gms:play-services-maps:15.0.0] C:\Users\thanh\.gradle\caches\transforms-2\files-2.1\fed3b02998b45e6e983973a7406a1a6f\jetified-play-services-maps-15.0.0\AndroidManifest.xml:30:5-20
MERGED from [com.google.android.gms:play-services-location:15.0.0] C:\Users\thanh\.gradle\caches\transforms-2\files-2.1\e163bec3b148ac458f30ee9a44645a43\jetified-play-services-location-15.0.0\AndroidManifest.xml:7:5-20
MERGED from [com.google.android.gms:play-services-location:15.0.0] C:\Users\thanh\.gradle\caches\transforms-2\files-2.1\e163bec3b148ac458f30ee9a44645a43\jetified-play-services-location-15.0.0\AndroidManifest.xml:7:5-20
MERGED from [com.google.firebase:firebase-iid:17.0.4] C:\Users\thanh\.gradle\caches\transforms-2\files-2.1\c62e8bba72fc9fd55aa45a73c8d1f033\jetified-firebase-iid-17.0.4\AndroidManifest.xml:28:5-57:19
MERGED from [com.google.firebase:firebase-iid:17.0.4] C:\Users\thanh\.gradle\caches\transforms-2\files-2.1\c62e8bba72fc9fd55aa45a73c8d1f033\jetified-firebase-iid-17.0.4\AndroidManifest.xml:28:5-57:19
MERGED from [com.google.firebase:firebase-measurement-connector:17.0.1] C:\Users\thanh\.gradle\caches\transforms-2\files-2.1\7aaeb47292f851b2eea944b39316575e\jetified-firebase-measurement-connector-17.0.1\AndroidManifest.xml:22:5-23:19
MERGED from [com.google.firebase:firebase-measurement-connector:17.0.1] C:\Users\thanh\.gradle\caches\transforms-2\files-2.1\7aaeb47292f851b2eea944b39316575e\jetified-firebase-measurement-connector-17.0.1\AndroidManifest.xml:22:5-23:19
MERGED from [com.google.firebase:firebase-auth-interop:19.0.0] C:\Users\thanh\.gradle\caches\transforms-2\files-2.1\68dd590321da53844fc859861b272820\jetified-firebase-auth-interop-19.0.0\AndroidManifest.xml:7:5-8:19
MERGED from [com.google.firebase:firebase-auth-interop:19.0.0] C:\Users\thanh\.gradle\caches\transforms-2\files-2.1\68dd590321da53844fc859861b272820\jetified-firebase-auth-interop-19.0.0\AndroidManifest.xml:7:5-8:19
MERGED from [com.google.firebase:firebase-common:19.3.0] C:\Users\thanh\.gradle\caches\transforms-2\files-2.1\3deb10f8139ef5717b3d54ada2a19ca4\jetified-firebase-common-19.3.0\AndroidManifest.xml:25:5-37:19
MERGED from [com.google.firebase:firebase-common:19.3.0] C:\Users\thanh\.gradle\caches\transforms-2\files-2.1\3deb10f8139ef5717b3d54ada2a19ca4\jetified-firebase-common-19.3.0\AndroidManifest.xml:25:5-37:19
MERGED from [com.google.firebase:firebase-iid-interop:16.0.1] C:\Users\thanh\.gradle\caches\transforms-2\files-2.1\27bd78a871984e9d6a40fde5607996ac\jetified-firebase-iid-interop-16.0.1\AndroidManifest.xml:7:5-8:19
MERGED from [com.google.firebase:firebase-iid-interop:16.0.1] C:\Users\thanh\.gradle\caches\transforms-2\files-2.1\27bd78a871984e9d6a40fde5607996ac\jetified-firebase-iid-interop-16.0.1\AndroidManifest.xml:7:5-8:19
MERGED from [com.google.android.gms:play-services-base:17.1.0] C:\Users\thanh\.gradle\caches\transforms-2\files-2.1\75e7c473eccef2b3a0eec97fa3a7825b\jetified-play-services-base-17.1.0\AndroidManifest.xml:22:5-27:19
MERGED from [com.google.android.gms:play-services-base:17.1.0] C:\Users\thanh\.gradle\caches\transforms-2\files-2.1\75e7c473eccef2b3a0eec97fa3a7825b\jetified-play-services-base-17.1.0\AndroidManifest.xml:22:5-27:19
MERGED from [com.google.android.gms:play-services-tasks:17.0.0] C:\Users\thanh\.gradle\caches\transforms-2\files-2.1\9f753adbd07fbe4faac50d5081095fbc\jetified-play-services-tasks-17.0.0\AndroidManifest.xml:7:5-20
MERGED from [com.google.android.gms:play-services-tasks:17.0.0] C:\Users\thanh\.gradle\caches\transforms-2\files-2.1\9f753adbd07fbe4faac50d5081095fbc\jetified-play-services-tasks-17.0.0\AndroidManifest.xml:7:5-20
MERGED from [com.google.android.gms:play-services-places-placereport:15.0.1] C:\Users\thanh\.gradle\caches\transforms-2\files-2.1\8e41facb8177a5dd71154ca2ce914207\jetified-play-services-places-placereport-15.0.1\AndroidManifest.xml:22:5-20
MERGED from [com.google.android.gms:play-services-places-placereport:15.0.1] C:\Users\thanh\.gradle\caches\transforms-2\files-2.1\8e41facb8177a5dd71154ca2ce914207\jetified-play-services-places-placereport-15.0.1\AndroidManifest.xml:22:5-20
MERGED from [com.google.android.gms:play-services-stats:16.0.1] C:\Users\thanh\.gradle\caches\transforms-2\files-2.1\6ad0995a5931a1fbf66951bfa062db2b\jetified-play-services-stats-16.0.1\AndroidManifest.xml:7:5-20
MERGED from [com.google.android.gms:play-services-stats:16.0.1] C:\Users\thanh\.gradle\caches\transforms-2\files-2.1\6ad0995a5931a1fbf66951bfa062db2b\jetified-play-services-stats-16.0.1\AndroidManifest.xml:7:5-20
MERGED from [com.google.android.gms:play-services-basement:17.0.0] C:\Users\thanh\.gradle\caches\transforms-2\files-2.1\164bb505b81f338baa0db13edd04c1d1\jetified-play-services-basement-17.0.0\AndroidManifest.xml:22:5-26:19
MERGED from [com.google.android.gms:play-services-basement:17.0.0] C:\Users\thanh\.gradle\caches\transforms-2\files-2.1\164bb505b81f338baa0db13edd04c1d1\jetified-play-services-basement-17.0.0\AndroidManifest.xml:22:5-26:19
MERGED from [androidx.core:core:1.1.0] C:\Users\thanh\.gradle\caches\transforms-2\files-2.1\bcfc0b80df78591183083cc148e1cf2c\core-1.1.0\AndroidManifest.xml:24:5-89
MERGED from [androidx.core:core:1.1.0] C:\Users\thanh\.gradle\caches\transforms-2\files-2.1\bcfc0b80df78591183083cc148e1cf2c\core-1.1.0\AndroidManifest.xml:24:5-89
MERGED from [androidx.versionedparcelable:versionedparcelable:1.1.0] C:\Users\thanh\.gradle\caches\transforms-2\files-2.1\fef3bcbc3f86e0f441f90d2d23ba3f3b\versionedparcelable-1.1.0\AndroidManifest.xml:24:5-25:19
MERGED from [androidx.versionedparcelable:versionedparcelable:1.1.0] C:\Users\thanh\.gradle\caches\transforms-2\files-2.1\fef3bcbc3f86e0f441f90d2d23ba3f3b\versionedparcelable-1.1.0\AndroidManifest.xml:24:5-25:19
	android:appComponentFactory
		ADDED from [androidx.core:core:1.1.0] C:\Users\thanh\.gradle\caches\transforms-2\files-2.1\bcfc0b80df78591183083cc148e1cf2c\core-1.1.0\AndroidManifest.xml:24:18-86
	android:supportsRtl
		ADDED from D:\APP ANDROID\MyAppTXX\app\src\main\AndroidManifest.xml:20:9-35
	android:label
		ADDED from D:\APP ANDROID\MyAppTXX\app\src\main\AndroidManifest.xml:18:9-41
	android:roundIcon
		ADDED from D:\APP ANDROID\MyAppTXX\app\src\main\AndroidManifest.xml:19:9-54
	android:icon
		ADDED from D:\APP ANDROID\MyAppTXX\app\src\main\AndroidManifest.xml:17:9-41
	android:allowBackup
		ADDED from D:\APP ANDROID\MyAppTXX\app\src\main\AndroidManifest.xml:16:9-35
	android:theme
		ADDED from D:\APP ANDROID\MyAppTXX\app\src\main\AndroidManifest.xml:21:9-40
uses-library#org.apache.http.legacy
ADDED from D:\APP ANDROID\MyAppTXX\app\src\main\AndroidManifest.xml:23:9-25:40
	android:required
		ADDED from D:\APP ANDROID\MyAppTXX\app\src\main\AndroidManifest.xml:25:13-37
	android:name
		ADDED from D:\APP ANDROID\MyAppTXX\app\src\main\AndroidManifest.xml:24:13-50
activity#com.example.taxi.SplashActivity
ADDED from D:\APP ANDROID\MyAppTXX\app\src\main\AndroidManifest.xml:27:9-36:20
	android:noHistory
		ADDED from D:\APP ANDROID\MyAppTXX\app\src\main\AndroidManifest.xml:29:13-37
	android:theme
		ADDED from D:\APP ANDROID\MyAppTXX\app\src\main\AndroidManifest.xml:30:13-48
	android:name
		ADDED from D:\APP ANDROID\MyAppTXX\app\src\main\AndroidManifest.xml:28:13-43
intent-filter#action:name:android.intent.action.MAIN+category:name:android.intent.category.LAUNCHER
ADDED from D:\APP ANDROID\MyAppTXX\app\src\main\AndroidManifest.xml:31:13-35:29
action#android.intent.action.MAIN
ADDED from D:\APP ANDROID\MyAppTXX\app\src\main\AndroidManifest.xml:32:17-69
	android:name
		ADDED from D:\APP ANDROID\MyAppTXX\app\src\main\AndroidManifest.xml:32:25-66
category#android.intent.category.LAUNCHER
ADDED from D:\APP ANDROID\MyAppTXX\app\src\main\AndroidManifest.xml:34:17-77
	android:name
		ADDED from D:\APP ANDROID\MyAppTXX\app\src\main\AndroidManifest.xml:34:27-74
activity#com.example.taxi.RegistrationActivity
ADDED from D:\APP ANDROID\MyAppTXX\app\src\main\AndroidManifest.xml:37:9-58
	android:name
		ADDED from D:\APP ANDROID\MyAppTXX\app\src\main\AndroidManifest.xml:37:19-55
activity#com.example.taxi.LoginActivity
ADDED from D:\APP ANDROID\MyAppTXX\app\src\main\AndroidManifest.xml:38:9-51
	android:name
		ADDED from D:\APP ANDROID\MyAppTXX\app\src\main\AndroidManifest.xml:38:19-48
meta-data#com.google.android.gms.version
ADDED from D:\APP ANDROID\MyAppTXX\app\src\main\AndroidManifest.xml:47:9-49:69
MERGED from [com.google.android.gms:play-services-basement:17.0.0] C:\Users\thanh\.gradle\caches\transforms-2\files-2.1\164bb505b81f338baa0db13edd04c1d1\jetified-play-services-basement-17.0.0\AndroidManifest.xml:23:9-25:69
MERGED from [com.google.android.gms:play-services-basement:17.0.0] C:\Users\thanh\.gradle\caches\transforms-2\files-2.1\164bb505b81f338baa0db13edd04c1d1\jetified-play-services-basement-17.0.0\AndroidManifest.xml:23:9-25:69
	android:value
		ADDED from D:\APP ANDROID\MyAppTXX\app\src\main\AndroidManifest.xml:49:13-66
	android:name
		ADDED from D:\APP ANDROID\MyAppTXX\app\src\main\AndroidManifest.xml:48:13-58
meta-data#com.google.android.geo.API_KEY
ADDED from D:\APP ANDROID\MyAppTXX\app\src\main\AndroidManifest.xml:50:9-52:55
	android:value
		ADDED from D:\APP ANDROID\MyAppTXX\app\src\main\AndroidManifest.xml:52:13-52
	android:name
		ADDED from D:\APP ANDROID\MyAppTXX\app\src\main\AndroidManifest.xml:51:13-58
activity#com.example.taxi.WelcomActivity
ADDED from D:\APP ANDROID\MyAppTXX\app\src\main\AndroidManifest.xml:54:9-56:61
	android:label
		ADDED from D:\APP ANDROID\MyAppTXX\app\src\main\AndroidManifest.xml:56:13-58
	android:name
		ADDED from D:\APP ANDROID\MyAppTXX\app\src\main\AndroidManifest.xml:55:13-43
activity#com.example.taxi.MainActivity
ADDED from D:\APP ANDROID\MyAppTXX\app\src\main\AndroidManifest.xml:57:9-59:20
	android:name
		ADDED from D:\APP ANDROID\MyAppTXX\app\src\main\AndroidManifest.xml:57:19-47
uses-sdk
INJECTED from D:\APP ANDROID\MyAppTXX\app\src\main\AndroidManifest.xml reason: use-sdk injection requested
INJECTED from D:\APP ANDROID\MyAppTXX\app\src\main\AndroidManifest.xml
INJECTED from D:\APP ANDROID\MyAppTXX\app\src\main\AndroidManifest.xml
MERGED from [com.rengwuxian.materialedittext:library:2.1.4] C:\Users\thanh\.gradle\caches\transforms-2\files-2.1\a7ded2818e88cf8fd4c703434d9a4d3e\jetified-library-2.1.4\AndroidManifest.xml:6:5-8:41
MERGED from [com.rengwuxian.materialedittext:library:2.1.4] C:\Users\thanh\.gradle\caches\transforms-2\files-2.1\a7ded2818e88cf8fd4c703434d9a4d3e\jetified-library-2.1.4\AndroidManifest.xml:6:5-8:41
MERGED from [uk.co.chrisjenx:calligraphy:2.3.0] C:\Users\thanh\.gradle\caches\transforms-2\files-2.1\d911d43c104de0e3492f48813bf60503\jetified-calligraphy-2.3.0\AndroidManifest.xml:7:5-9:41
MERGED from [uk.co.chrisjenx:calligraphy:2.3.0] C:\Users\thanh\.gradle\caches\transforms-2\files-2.1\d911d43c104de0e3492f48813bf60503\jetified-calligraphy-2.3.0\AndroidManifest.xml:7:5-9:41
MERGED from [com.google.android.material:material:1.1.0] C:\Users\thanh\.gradle\caches\transforms-2\files-2.1\6029c1862846be4a7ec1743d4d20ec64\material-1.1.0\AndroidManifest.xml:20:5-44
MERGED from [com.google.android.material:material:1.1.0] C:\Users\thanh\.gradle\caches\transforms-2\files-2.1\6029c1862846be4a7ec1743d4d20ec64\material-1.1.0\AndroidManifest.xml:20:5-44
MERGED from [androidx.appcompat:appcompat:1.1.0] C:\Users\thanh\.gradle\caches\transforms-2\files-2.1\6c5a1a33c151bf1b1b969a4997bc8337\appcompat-1.1.0\AndroidManifest.xml:20:5-22:41
MERGED from [androidx.appcompat:appcompat:1.1.0] C:\Users\thanh\.gradle\caches\transforms-2\files-2.1\6c5a1a33c151bf1b1b969a4997bc8337\appcompat-1.1.0\AndroidManifest.xml:20:5-22:41
MERGED from [androidx.constraintlayout:constraintlayout:1.1.3] C:\Users\thanh\.gradle\caches\transforms-2\files-2.1\eea79921d0082cd3162f25540a57b311\constraintlayout-1.1.3\AndroidManifest.xml:5:5-7:41
MERGED from [androidx.constraintlayout:constraintlayout:1.1.3] C:\Users\thanh\.gradle\caches\transforms-2\files-2.1\eea79921d0082cd3162f25540a57b311\constraintlayout-1.1.3\AndroidManifest.xml:5:5-7:41
MERGED from [com.google.firebase:firebase-messaging:17.3.4] C:\Users\thanh\.gradle\caches\transforms-2\files-2.1\8d94571bbf30a7f5ca7abf3fc84cdac7\jetified-firebase-messaging-17.3.4\AndroidManifest.xml:20:5-44
MERGED from [com.google.firebase:firebase-messaging:17.3.4] C:\Users\thanh\.gradle\caches\transforms-2\files-2.1\8d94571bbf30a7f5ca7abf3fc84cdac7\jetified-firebase-messaging-17.3.4\AndroidManifest.xml:20:5-44
MERGED from [com.firebase:geofire-android:3.0.0] C:\Users\thanh\.gradle\caches\transforms-2\files-2.1\9e118f6f3e91a3f7edff278991bf9110\jetified-geofire-android-3.0.0\AndroidManifest.xml:7:5-9:41
MERGED from [com.firebase:geofire-android:3.0.0] C:\Users\thanh\.gradle\caches\transforms-2\files-2.1\9e118f6f3e91a3f7edff278991bf9110\jetified-geofire-android-3.0.0\AndroidManifest.xml:7:5-9:41
MERGED from [com.google.firebase:firebase-database:19.3.0] C:\Users\thanh\.gradle\caches\transforms-2\files-2.1\a858482f0d85511048b88d680e761880\jetified-firebase-database-19.3.0\AndroidManifest.xml:19:5-21:41
MERGED from [com.google.firebase:firebase-database:19.3.0] C:\Users\thanh\.gradle\caches\transforms-2\files-2.1\a858482f0d85511048b88d680e761880\jetified-firebase-database-19.3.0\AndroidManifest.xml:19:5-21:41
MERGED from [com.google.firebase:firebase-auth:19.3.1] C:\Users\thanh\.gradle\caches\transforms-2\files-2.1\a965e02da0dc74b3cb82526fa169fefe\jetified-firebase-auth-19.3.1\AndroidManifest.xml:21:5-44
MERGED from [com.google.firebase:firebase-auth:19.3.1] C:\Users\thanh\.gradle\caches\transforms-2\files-2.1\a965e02da0dc74b3cb82526fa169fefe\jetified-firebase-auth-19.3.1\AndroidManifest.xml:21:5-44
MERGED from [androidx.cardview:cardview:1.0.0] C:\Users\thanh\.gradle\caches\transforms-2\files-2.1\923cd97b32caebf2e6b5629d421a10e9\cardview-1.0.0\AndroidManifest.xml:20:5-44
MERGED from [androidx.cardview:cardview:1.0.0] C:\Users\thanh\.gradle\caches\transforms-2\files-2.1\923cd97b32caebf2e6b5629d421a10e9\cardview-1.0.0\AndroidManifest.xml:20:5-44
MERGED from [com.github.d-max:spots-dialog:1.1] C:\Users\thanh\.gradle\caches\transforms-2\files-2.1\c0876c682c272d3d05c4d5397b598da0\jetified-spots-dialog-1.1\AndroidManifest.xml:7:5-9:41
MERGED from [com.github.d-max:spots-dialog:1.1] C:\Users\thanh\.gradle\caches\transforms-2\files-2.1\c0876c682c272d3d05c4d5397b598da0\jetified-spots-dialog-1.1\AndroidManifest.xml:7:5-9:41
MERGED from [com.github.glomadrian:MaterialAnimatedSwitch:1.1] C:\Users\thanh\.gradle\caches\transforms-2\files-2.1\ba1aace17fefb63a2d4084f22cfa4dea\jetified-MaterialAnimatedSwitch-1.1\AndroidManifest.xml:7:5-9:41
MERGED from [com.github.glomadrian:MaterialAnimatedSwitch:1.1] C:\Users\thanh\.gradle\caches\transforms-2\files-2.1\ba1aace17fefb63a2d4084f22cfa4dea\jetified-MaterialAnimatedSwitch-1.1\AndroidManifest.xml:7:5-9:41
MERGED from [com.google.android.gms:play-services-maps:15.0.0] C:\Users\thanh\.gradle\caches\transforms-2\files-2.1\fed3b02998b45e6e983973a7406a1a6f\jetified-play-services-maps-15.0.0\AndroidManifest.xml:20:5-44
MERGED from [com.google.android.gms:play-services-maps:15.0.0] C:\Users\thanh\.gradle\caches\transforms-2\files-2.1\fed3b02998b45e6e983973a7406a1a6f\jetified-play-services-maps-15.0.0\AndroidManifest.xml:20:5-44
MERGED from [com.google.android.gms:play-services-location:15.0.0] C:\Users\thanh\.gradle\caches\transforms-2\files-2.1\e163bec3b148ac458f30ee9a44645a43\jetified-play-services-location-15.0.0\AndroidManifest.xml:5:5-44
MERGED from [com.google.android.gms:play-services-location:15.0.0] C:\Users\thanh\.gradle\caches\transforms-2\files-2.1\e163bec3b148ac458f30ee9a44645a43\jetified-play-services-location-15.0.0\AndroidManifest.xml:5:5-44
MERGED from [com.google.firebase:firebase-iid:17.0.4] C:\Users\thanh\.gradle\caches\transforms-2\files-2.1\c62e8bba72fc9fd55aa45a73c8d1f033\jetified-firebase-iid-17.0.4\AndroidManifest.xml:20:5-44
MERGED from [com.google.firebase:firebase-iid:17.0.4] C:\Users\thanh\.gradle\caches\transforms-2\files-2.1\c62e8bba72fc9fd55aa45a73c8d1f033\jetified-firebase-iid-17.0.4\AndroidManifest.xml:20:5-44
MERGED from [com.google.firebase:firebase-measurement-connector:17.0.1] C:\Users\thanh\.gradle\caches\transforms-2\files-2.1\7aaeb47292f851b2eea944b39316575e\jetified-firebase-measurement-connector-17.0.1\AndroidManifest.xml:20:5-44
MERGED from [com.google.firebase:firebase-measurement-connector:17.0.1] C:\Users\thanh\.gradle\caches\transforms-2\files-2.1\7aaeb47292f851b2eea944b39316575e\jetified-firebase-measurement-connector-17.0.1\AndroidManifest.xml:20:5-44
MERGED from [com.google.firebase:firebase-auth-interop:19.0.0] C:\Users\thanh\.gradle\caches\transforms-2\files-2.1\68dd590321da53844fc859861b272820\jetified-firebase-auth-interop-19.0.0\AndroidManifest.xml:5:5-44
MERGED from [com.google.firebase:firebase-auth-interop:19.0.0] C:\Users\thanh\.gradle\caches\transforms-2\files-2.1\68dd590321da53844fc859861b272820\jetified-firebase-auth-interop-19.0.0\AndroidManifest.xml:5:5-44
MERGED from [com.google.firebase:firebase-common:19.3.0] C:\Users\thanh\.gradle\caches\transforms-2\files-2.1\3deb10f8139ef5717b3d54ada2a19ca4\jetified-firebase-common-19.3.0\AndroidManifest.xml:20:5-22:41
MERGED from [com.google.firebase:firebase-common:19.3.0] C:\Users\thanh\.gradle\caches\transforms-2\files-2.1\3deb10f8139ef5717b3d54ada2a19ca4\jetified-firebase-common-19.3.0\AndroidManifest.xml:20:5-22:41
MERGED from [com.google.firebase:firebase-database-collection:17.0.1] C:\Users\thanh\.gradle\caches\transforms-2\files-2.1\fa3d7eac296077651560ac3933490b85\jetified-firebase-database-collection-17.0.1\AndroidManifest.xml:5:5-7:41
MERGED from [com.google.firebase:firebase-database-collection:17.0.1] C:\Users\thanh\.gradle\caches\transforms-2\files-2.1\fa3d7eac296077651560ac3933490b85\jetified-firebase-database-collection-17.0.1\AndroidManifest.xml:5:5-7:41
MERGED from [com.google.firebase:firebase-iid-interop:16.0.1] C:\Users\thanh\.gradle\caches\transforms-2\files-2.1\27bd78a871984e9d6a40fde5607996ac\jetified-firebase-iid-interop-16.0.1\AndroidManifest.xml:5:5-44
MERGED from [com.google.firebase:firebase-iid-interop:16.0.1] C:\Users\thanh\.gradle\caches\transforms-2\files-2.1\27bd78a871984e9d6a40fde5607996ac\jetified-firebase-iid-interop-16.0.1\AndroidManifest.xml:5:5-44
MERGED from [com.google.android.gms:play-services-base:17.1.0] C:\Users\thanh\.gradle\caches\transforms-2\files-2.1\75e7c473eccef2b3a0eec97fa3a7825b\jetified-play-services-base-17.1.0\AndroidManifest.xml:20:5-44
MERGED from [com.google.android.gms:play-services-base:17.1.0] C:\Users\thanh\.gradle\caches\transforms-2\files-2.1\75e7c473eccef2b3a0eec97fa3a7825b\jetified-play-services-base-17.1.0\AndroidManifest.xml:20:5-44
MERGED from [com.google.android.gms:play-services-tasks:17.0.0] C:\Users\thanh\.gradle\caches\transforms-2\files-2.1\9f753adbd07fbe4faac50d5081095fbc\jetified-play-services-tasks-17.0.0\AndroidManifest.xml:5:5-44
MERGED from [com.google.android.gms:play-services-tasks:17.0.0] C:\Users\thanh\.gradle\caches\transforms-2\files-2.1\9f753adbd07fbe4faac50d5081095fbc\jetified-play-services-tasks-17.0.0\AndroidManifest.xml:5:5-44
MERGED from [com.google.android.gms:play-services-places-placereport:15.0.1] C:\Users\thanh\.gradle\caches\transforms-2\files-2.1\8e41facb8177a5dd71154ca2ce914207\jetified-play-services-places-placereport-15.0.1\AndroidManifest.xml:20:5-44
MERGED from [com.google.android.gms:play-services-places-placereport:15.0.1] C:\Users\thanh\.gradle\caches\transforms-2\files-2.1\8e41facb8177a5dd71154ca2ce914207\jetified-play-services-places-placereport-15.0.1\AndroidManifest.xml:20:5-44
MERGED from [com.google.android.gms:play-services-stats:16.0.1] C:\Users\thanh\.gradle\caches\transforms-2\files-2.1\6ad0995a5931a1fbf66951bfa062db2b\jetified-play-services-stats-16.0.1\AndroidManifest.xml:5:5-44
MERGED from [com.google.android.gms:play-services-stats:16.0.1] C:\Users\thanh\.gradle\caches\transforms-2\files-2.1\6ad0995a5931a1fbf66951bfa062db2b\jetified-play-services-stats-16.0.1\AndroidManifest.xml:5:5-44
MERGED from [com.google.android.gms:play-services-basement:17.0.0] C:\Users\thanh\.gradle\caches\transforms-2\files-2.1\164bb505b81f338baa0db13edd04c1d1\jetified-play-services-basement-17.0.0\AndroidManifest.xml:20:5-44
MERGED from [com.google.android.gms:play-services-basement:17.0.0] C:\Users\thanh\.gradle\caches\transforms-2\files-2.1\164bb505b81f338baa0db13edd04c1d1\jetified-play-services-basement-17.0.0\AndroidManifest.xml:20:5-44
MERGED from [androidx.viewpager2:viewpager2:1.0.0] C:\Users\thanh\.gradle\caches\transforms-2\files-2.1\130b3e7299d7b916415d9bf24d660e86\viewpager2-1.0.0\AndroidManifest.xml:20:5-22:41
MERGED from [androidx.viewpager2:viewpager2:1.0.0] C:\Users\thanh\.gradle\caches\transforms-2\files-2.1\130b3e7299d7b916415d9bf24d660e86\viewpager2-1.0.0\AndroidManifest.xml:20:5-22:41
MERGED from [androidx.fragment:fragment:1.1.0] C:\Users\thanh\.gradle\caches\transforms-2\files-2.1\33864422152bb0af748686115ae1452a\fragment-1.1.0\AndroidManifest.xml:20:5-22:41
MERGED from [androidx.fragment:fragment:1.1.0] C:\Users\thanh\.gradle\caches\transforms-2\files-2.1\33864422152bb0af748686115ae1452a\fragment-1.1.0\AndroidManifest.xml:20:5-22:41
MERGED from [androidx.appcompat:appcompat-resources:1.1.0] C:\Users\thanh\.gradle\caches\transforms-2\files-2.1\0a5d1ddc01de78a90b6c8d414c9a6e9c\jetified-appcompat-resources-1.1.0\AndroidManifest.xml:20:5-22:41
MERGED from [androidx.appcompat:appcompat-resources:1.1.0] C:\Users\thanh\.gradle\caches\transforms-2\files-2.1\0a5d1ddc01de78a90b6c8d414c9a6e9c\jetified-appcompat-resources-1.1.0\AndroidManifest.xml:20:5-22:41
MERGED from [androidx.drawerlayout:drawerlayout:1.0.0] C:\Users\thanh\.gradle\caches\transforms-2\files-2.1\43eb2d2e7e68e27bf73363f2db15d7be\drawerlayout-1.0.0\AndroidManifest.xml:20:5-44
MERGED from [androidx.drawerlayout:drawerlayout:1.0.0] C:\Users\thanh\.gradle\caches\transforms-2\files-2.1\43eb2d2e7e68e27bf73363f2db15d7be\drawerlayout-1.0.0\AndroidManifest.xml:20:5-44
MERGED from [androidx.coordinatorlayout:coordinatorlayout:1.1.0] C:\Users\thanh\.gradle\caches\transforms-2\files-2.1\558f92460b4271919299f451301533e5\coordinatorlayout-1.1.0\AndroidManifest.xml:20:5-22:41
MERGED from [androidx.coordinatorlayout:coordinatorlayout:1.1.0] C:\Users\thanh\.gradle\caches\transforms-2\files-2.1\558f92460b4271919299f451301533e5\coordinatorlayout-1.1.0\AndroidManifest.xml:20:5-22:41
MERGED from [androidx.transition:transition:1.2.0] C:\Users\thanh\.gradle\caches\transforms-2\files-2.1\3981cec19a17bddac768d603ddda69c3\transition-1.2.0\AndroidManifest.xml:20:5-22:41
MERGED from [androidx.transition:transition:1.2.0] C:\Users\thanh\.gradle\caches\transforms-2\files-2.1\3981cec19a17bddac768d603ddda69c3\transition-1.2.0\AndroidManifest.xml:20:5-22:41
MERGED from [androidx.vectordrawable:vectordrawable-animated:1.1.0] C:\Users\thanh\.gradle\caches\transforms-2\files-2.1\51d331fcd57936d004e0494487c5a706\vectordrawable-animated-1.1.0\AndroidManifest.xml:20:5-22:41
MERGED from [androidx.vectordrawable:vectordrawable-animated:1.1.0] C:\Users\thanh\.gradle\caches\transforms-2\files-2.1\51d331fcd57936d004e0494487c5a706\vectordrawable-animated-1.1.0\AndroidManifest.xml:20:5-22:41
MERGED from [androidx.vectordrawable:vectordrawable:1.1.0] C:\Users\thanh\.gradle\caches\transforms-2\files-2.1\e28f2eab0eeac32ad77aa73d51ae8294\vectordrawable-1.1.0\AndroidManifest.xml:20:5-22:41
MERGED from [androidx.vectordrawable:vectordrawable:1.1.0] C:\Users\thanh\.gradle\caches\transforms-2\files-2.1\e28f2eab0eeac32ad77aa73d51ae8294\vectordrawable-1.1.0\AndroidManifest.xml:20:5-22:41
MERGED from [androidx.viewpager:viewpager:1.0.0] C:\Users\thanh\.gradle\caches\transforms-2\files-2.1\0e9d2ae9f4afac9ea1a0a04f8350196c\viewpager-1.0.0\AndroidManifest.xml:20:5-44
MERGED from [androidx.viewpager:viewpager:1.0.0] C:\Users\thanh\.gradle\caches\transforms-2\files-2.1\0e9d2ae9f4afac9ea1a0a04f8350196c\viewpager-1.0.0\AndroidManifest.xml:20:5-44
MERGED from [androidx.loader:loader:1.0.0] C:\Users\thanh\.gradle\caches\transforms-2\files-2.1\d3e38a4ee70dd28ca131c75161280cc6\loader-1.0.0\AndroidManifest.xml:20:5-44
MERGED from [androidx.loader:loader:1.0.0] C:\Users\thanh\.gradle\caches\transforms-2\files-2.1\d3e38a4ee70dd28ca131c75161280cc6\loader-1.0.0\AndroidManifest.xml:20:5-44
MERGED from [androidx.activity:activity:1.0.0] C:\Users\thanh\.gradle\caches\transforms-2\files-2.1\c99f94f95913e12a34477cc68c241232\jetified-activity-1.0.0\AndroidManifest.xml:20:5-22:41
MERGED from [androidx.activity:activity:1.0.0] C:\Users\thanh\.gradle\caches\transforms-2\files-2.1\c99f94f95913e12a34477cc68c241232\jetified-activity-1.0.0\AndroidManifest.xml:20:5-22:41
MERGED from [androidx.recyclerview:recyclerview:1.1.0] C:\Users\thanh\.gradle\caches\transforms-2\files-2.1\d4b67913328dae4e98aac9b3260d763c\recyclerview-1.1.0\AndroidManifest.xml:20:5-22:41
MERGED from [androidx.recyclerview:recyclerview:1.1.0] C:\Users\thanh\.gradle\caches\transforms-2\files-2.1\d4b67913328dae4e98aac9b3260d763c\recyclerview-1.1.0\AndroidManifest.xml:20:5-22:41
MERGED from [androidx.customview:customview:1.0.0] C:\Users\thanh\.gradle\caches\transforms-2\files-2.1\fdcb254cec2eda61cf9d0e6a91c1273a\customview-1.0.0\AndroidManifest.xml:20:5-44
MERGED from [androidx.customview:customview:1.0.0] C:\Users\thanh\.gradle\caches\transforms-2\files-2.1\fdcb254cec2eda61cf9d0e6a91c1273a\customview-1.0.0\AndroidManifest.xml:20:5-44
MERGED from [androidx.core:core:1.1.0] C:\Users\thanh\.gradle\caches\transforms-2\files-2.1\bcfc0b80df78591183083cc148e1cf2c\core-1.1.0\AndroidManifest.xml:20:5-22:41
MERGED from [androidx.core:core:1.1.0] C:\Users\thanh\.gradle\caches\transforms-2\files-2.1\bcfc0b80df78591183083cc148e1cf2c\core-1.1.0\AndroidManifest.xml:20:5-22:41
MERGED from [androidx.cursoradapter:cursoradapter:1.0.0] C:\Users\thanh\.gradle\caches\transforms-2\files-2.1\8a144bf192d6484f4ce6240d7fa27967\cursoradapter-1.0.0\AndroidManifest.xml:20:5-44
MERGED from [androidx.cursoradapter:cursoradapter:1.0.0] C:\Users\thanh\.gradle\caches\transforms-2\files-2.1\8a144bf192d6484f4ce6240d7fa27967\cursoradapter-1.0.0\AndroidManifest.xml:20:5-44
MERGED from [com.google.firebase:firebase-components:16.0.0] C:\Users\thanh\.gradle\caches\transforms-2\files-2.1\debd70e42d2284fe791e96c9c76092fa\jetified-firebase-components-16.0.0\AndroidManifest.xml:19:5-21:41
MERGED from [com.google.firebase:firebase-components:16.0.0] C:\Users\thanh\.gradle\caches\transforms-2\files-2.1\debd70e42d2284fe791e96c9c76092fa\jetified-firebase-components-16.0.0\AndroidManifest.xml:19:5-21:41
MERGED from [androidx.localbroadcastmanager:localbroadcastmanager:1.0.0] C:\Users\thanh\.gradle\caches\transforms-2\files-2.1\b3eceaf6e5cc2df4bb865a5445be6293\localbroadcastmanager-1.0.0\AndroidManifest.xml:20:5-44
MERGED from [androidx.localbroadcastmanager:localbroadcastmanager:1.0.0] C:\Users\thanh\.gradle\caches\transforms-2\files-2.1\b3eceaf6e5cc2df4bb865a5445be6293\localbroadcastmanager-1.0.0\AndroidManifest.xml:20:5-44
MERGED from [androidx.versionedparcelable:versionedparcelable:1.1.0] C:\Users\thanh\.gradle\caches\transforms-2\files-2.1\fef3bcbc3f86e0f441f90d2d23ba3f3b\versionedparcelable-1.1.0\AndroidManifest.xml:20:5-22:41
MERGED from [androidx.versionedparcelable:versionedparcelable:1.1.0] C:\Users\thanh\.gradle\caches\transforms-2\files-2.1\fef3bcbc3f86e0f441f90d2d23ba3f3b\versionedparcelable-1.1.0\AndroidManifest.xml:20:5-22:41
MERGED from [androidx.lifecycle:lifecycle-runtime:2.1.0] C:\Users\thanh\.gradle\caches\transforms-2\files-2.1\10c582a6c9d10d357ca6c4650e6b6d1c\lifecycle-runtime-2.1.0\AndroidManifest.xml:20:5-44
MERGED from [androidx.lifecycle:lifecycle-runtime:2.1.0] C:\Users\thanh\.gradle\caches\transforms-2\files-2.1\10c582a6c9d10d357ca6c4650e6b6d1c\lifecycle-runtime-2.1.0\AndroidManifest.xml:20:5-44
MERGED from [androidx.lifecycle:lifecycle-viewmodel:2.1.0] C:\Users\thanh\.gradle\caches\transforms-2\files-2.1\40211b48e1fd6597c46fa7fb3bdc27f4\lifecycle-viewmodel-2.1.0\AndroidManifest.xml:20:5-44
MERGED from [androidx.lifecycle:lifecycle-viewmodel:2.1.0] C:\Users\thanh\.gradle\caches\transforms-2\files-2.1\40211b48e1fd6597c46fa7fb3bdc27f4\lifecycle-viewmodel-2.1.0\AndroidManifest.xml:20:5-44
MERGED from [androidx.savedstate:savedstate:1.0.0] C:\Users\thanh\.gradle\caches\transforms-2\files-2.1\a2ae4022237bbaf198d3d05422530051\jetified-savedstate-1.0.0\AndroidManifest.xml:20:5-22:41
MERGED from [androidx.savedstate:savedstate:1.0.0] C:\Users\thanh\.gradle\caches\transforms-2\files-2.1\a2ae4022237bbaf198d3d05422530051\jetified-savedstate-1.0.0\AndroidManifest.xml:20:5-22:41
MERGED from [androidx.interpolator:interpolator:1.0.0] C:\Users\thanh\.gradle\caches\transforms-2\files-2.1\9f8a366e57dff09c00193bb4b84f0896\interpolator-1.0.0\AndroidManifest.xml:20:5-44
MERGED from [androidx.interpolator:interpolator:1.0.0] C:\Users\thanh\.gradle\caches\transforms-2\files-2.1\9f8a366e57dff09c00193bb4b84f0896\interpolator-1.0.0\AndroidManifest.xml:20:5-44
MERGED from [androidx.lifecycle:lifecycle-livedata:2.0.0] C:\Users\thanh\.gradle\caches\transforms-2\files-2.1\744e890fd9c2229fd55f0f204e895827\lifecycle-livedata-2.0.0\AndroidManifest.xml:20:5-44
MERGED from [androidx.lifecycle:lifecycle-livedata:2.0.0] C:\Users\thanh\.gradle\caches\transforms-2\files-2.1\744e890fd9c2229fd55f0f204e895827\lifecycle-livedata-2.0.0\AndroidManifest.xml:20:5-44
MERGED from [androidx.lifecycle:lifecycle-livedata-core:2.0.0] C:\Users\thanh\.gradle\caches\transforms-2\files-2.1\72cbc39fa25a246d7e646058ccbab8e7\lifecycle-livedata-core-2.0.0\AndroidManifest.xml:20:5-44
MERGED from [androidx.lifecycle:lifecycle-livedata-core:2.0.0] C:\Users\thanh\.gradle\caches\transforms-2\files-2.1\72cbc39fa25a246d7e646058ccbab8e7\lifecycle-livedata-core-2.0.0\AndroidManifest.xml:20:5-44
MERGED from [androidx.arch.core:core-runtime:2.0.0] C:\Users\thanh\.gradle\caches\transforms-2\files-2.1\a19056003d7a5f2bc9cc665fd561b346\core-runtime-2.0.0\AndroidManifest.xml:20:5-44
MERGED from [androidx.arch.core:core-runtime:2.0.0] C:\Users\thanh\.gradle\caches\transforms-2\files-2.1\a19056003d7a5f2bc9cc665fd561b346\core-runtime-2.0.0\AndroidManifest.xml:20:5-44
INJECTED from D:\APP ANDROID\MyAppTXX\app\src\main\AndroidManifest.xml
INJECTED from D:\APP ANDROID\MyAppTXX\app\src\main\AndroidManifest.xml
	android:targetSdkVersion
		INJECTED from D:\APP ANDROID\MyAppTXX\app\src\main\AndroidManifest.xml
		ADDED from D:\APP ANDROID\MyAppTXX\app\src\main\AndroidManifest.xml
		INJECTED from D:\APP ANDROID\MyAppTXX\app\src\main\AndroidManifest.xml
	android:minSdkVersion
		INJECTED from D:\APP ANDROID\MyAppTXX\app\src\main\AndroidManifest.xml
		ADDED from D:\APP ANDROID\MyAppTXX\app\src\main\AndroidManifest.xml
		INJECTED from D:\APP ANDROID\MyAppTXX\app\src\main\AndroidManifest.xml
service#com.google.firebase.messaging.FirebaseMessagingService
ADDED from [com.google.firebase:firebase-messaging:17.3.4] C:\Users\thanh\.gradle\caches\transforms-2\files-2.1\8d94571bbf30a7f5ca7abf3fc84cdac7\jetified-firebase-messaging-17.3.4\AndroidManifest.xml:28:9-34:19
	android:exported
		ADDED from [com.google.firebase:firebase-messaging:17.3.4] C:\Users\thanh\.gradle\caches\transforms-2\files-2.1\8d94571bbf30a7f5ca7abf3fc84cdac7\jetified-firebase-messaging-17.3.4\AndroidManifest.xml:30:13-36
	android:name
		ADDED from [com.google.firebase:firebase-messaging:17.3.4] C:\Users\thanh\.gradle\caches\transforms-2\files-2.1\8d94571bbf30a7f5ca7abf3fc84cdac7\jetified-firebase-messaging-17.3.4\AndroidManifest.xml:29:13-82
intent-filter#action:name:com.google.firebase.MESSAGING_EVENT
ADDED from [com.google.firebase:firebase-messaging:17.3.4] C:\Users\thanh\.gradle\caches\transforms-2\files-2.1\8d94571bbf30a7f5ca7abf3fc84cdac7\jetified-firebase-messaging-17.3.4\AndroidManifest.xml:31:13-33:29
	android:priority
		ADDED from [com.google.firebase:firebase-messaging:17.3.4] C:\Users\thanh\.gradle\caches\transforms-2\files-2.1\8d94571bbf30a7f5ca7abf3fc84cdac7\jetified-firebase-messaging-17.3.4\AndroidManifest.xml:31:28-51
action#com.google.firebase.MESSAGING_EVENT
ADDED from [com.google.firebase:firebase-messaging:17.3.4] C:\Users\thanh\.gradle\caches\transforms-2\files-2.1\8d94571bbf30a7f5ca7abf3fc84cdac7\jetified-firebase-messaging-17.3.4\AndroidManifest.xml:32:17-78
	android:name
		ADDED from [com.google.firebase:firebase-messaging:17.3.4] C:\Users\thanh\.gradle\caches\transforms-2\files-2.1\8d94571bbf30a7f5ca7abf3fc84cdac7\jetified-firebase-messaging-17.3.4\AndroidManifest.xml:32:25-75
uses-permission#android.permission.ACCESS_NETWORK_STATE
ADDED from [com.google.firebase:firebase-database:19.3.0] C:\Users\thanh\.gradle\caches\transforms-2\files-2.1\a858482f0d85511048b88d680e761880\jetified-firebase-database-19.3.0\AndroidManifest.xml:25:5-79
MERGED from [com.google.android.gms:play-services-maps:15.0.0] C:\Users\thanh\.gradle\caches\transforms-2\files-2.1\fed3b02998b45e6e983973a7406a1a6f\jetified-play-services-maps-15.0.0\AndroidManifest.xml:23:5-79
MERGED from [com.google.android.gms:play-services-maps:15.0.0] C:\Users\thanh\.gradle\caches\transforms-2\files-2.1\fed3b02998b45e6e983973a7406a1a6f\jetified-play-services-maps-15.0.0\AndroidManifest.xml:23:5-79
MERGED from [com.google.firebase:firebase-iid:17.0.4] C:\Users\thanh\.gradle\caches\transforms-2\files-2.1\c62e8bba72fc9fd55aa45a73c8d1f033\jetified-firebase-iid-17.0.4\AndroidManifest.xml:22:5-79
MERGED from [com.google.firebase:firebase-iid:17.0.4] C:\Users\thanh\.gradle\caches\transforms-2\files-2.1\c62e8bba72fc9fd55aa45a73c8d1f033\jetified-firebase-iid-17.0.4\AndroidManifest.xml:22:5-79
	android:name
		ADDED from [com.google.firebase:firebase-database:19.3.0] C:\Users\thanh\.gradle\caches\transforms-2\files-2.1\a858482f0d85511048b88d680e761880\jetified-firebase-database-19.3.0\AndroidManifest.xml:25:22-76
service#com.google.firebase.components.ComponentDiscoveryService
ADDED from [com.google.firebase:firebase-database:19.3.0] C:\Users\thanh\.gradle\caches\transforms-2\files-2.1\a858482f0d85511048b88d680e761880\jetified-firebase-database-19.3.0\AndroidManifest.xml:29:9-35:19
MERGED from [com.google.firebase:firebase-auth:19.3.1] C:\Users\thanh\.gradle\caches\transforms-2\files-2.1\a965e02da0dc74b3cb82526fa169fefe\jetified-firebase-auth-19.3.1\AndroidManifest.xml:33:9-39:19
MERGED from [com.google.firebase:firebase-auth:19.3.1] C:\Users\thanh\.gradle\caches\transforms-2\files-2.1\a965e02da0dc74b3cb82526fa169fefe\jetified-firebase-auth-19.3.1\AndroidManifest.xml:33:9-39:19
MERGED from [com.google.firebase:firebase-iid:17.0.4] C:\Users\thanh\.gradle\caches\transforms-2\files-2.1\c62e8bba72fc9fd55aa45a73c8d1f033\jetified-firebase-iid-17.0.4\AndroidManifest.xml:29:9-35:19
MERGED from [com.google.firebase:firebase-iid:17.0.4] C:\Users\thanh\.gradle\caches\transforms-2\files-2.1\c62e8bba72fc9fd55aa45a73c8d1f033\jetified-firebase-iid-17.0.4\AndroidManifest.xml:29:9-35:19
MERGED from [com.google.firebase:firebase-common:19.3.0] C:\Users\thanh\.gradle\caches\transforms-2\files-2.1\3deb10f8139ef5717b3d54ada2a19ca4\jetified-firebase-common-19.3.0\AndroidManifest.xml:32:9-36:35
MERGED from [com.google.firebase:firebase-common:19.3.0] C:\Users\thanh\.gradle\caches\transforms-2\files-2.1\3deb10f8139ef5717b3d54ada2a19ca4\jetified-firebase-common-19.3.0\AndroidManifest.xml:32:9-36:35
	android:exported
		ADDED from [com.google.firebase:firebase-database:19.3.0] C:\Users\thanh\.gradle\caches\transforms-2\files-2.1\a858482f0d85511048b88d680e761880\jetified-firebase-database-19.3.0\AndroidManifest.xml:31:13-37
	tools:targetApi
		ADDED from [com.google.firebase:firebase-common:19.3.0] C:\Users\thanh\.gradle\caches\transforms-2\files-2.1\3deb10f8139ef5717b3d54ada2a19ca4\jetified-firebase-common-19.3.0\AndroidManifest.xml:36:13-32
	android:directBootAware
		ADDED from [com.google.firebase:firebase-common:19.3.0] C:\Users\thanh\.gradle\caches\transforms-2\files-2.1\3deb10f8139ef5717b3d54ada2a19ca4\jetified-firebase-common-19.3.0\AndroidManifest.xml:34:13-43
	android:name
		ADDED from [com.google.firebase:firebase-database:19.3.0] C:\Users\thanh\.gradle\caches\transforms-2\files-2.1\a858482f0d85511048b88d680e761880\jetified-firebase-database-19.3.0\AndroidManifest.xml:30:13-84
meta-data#com.google.firebase.components:com.google.firebase.database.DatabaseRegistrar
ADDED from [com.google.firebase:firebase-database:19.3.0] C:\Users\thanh\.gradle\caches\transforms-2\files-2.1\a858482f0d85511048b88d680e761880\jetified-firebase-database-19.3.0\AndroidManifest.xml:32:13-34:85
	android:value
		ADDED from [com.google.firebase:firebase-database:19.3.0] C:\Users\thanh\.gradle\caches\transforms-2\files-2.1\a858482f0d85511048b88d680e761880\jetified-firebase-database-19.3.0\AndroidManifest.xml:34:17-82
	android:name
		ADDED from [com.google.firebase:firebase-database:19.3.0] C:\Users\thanh\.gradle\caches\transforms-2\files-2.1\a858482f0d85511048b88d680e761880\jetified-firebase-database-19.3.0\AndroidManifest.xml:33:17-109
activity#com.google.firebase.auth.internal.FederatedSignInActivity
ADDED from [com.google.firebase:firebase-auth:19.3.1] C:\Users\thanh\.gradle\caches\transforms-2\files-2.1\a965e02da0dc74b3cb82526fa169fefe\jetified-firebase-auth-19.3.1\AndroidManifest.xml:24:9-31:50
	android:excludeFromRecents
		ADDED from [com.google.firebase:firebase-auth:19.3.1] C:\Users\thanh\.gradle\caches\transforms-2\files-2.1\a965e02da0dc74b3cb82526fa169fefe\jetified-firebase-auth-19.3.1\AndroidManifest.xml:26:13-46
	android:launchMode
		ADDED from [com.google.firebase:firebase-auth:19.3.1] C:\Users\thanh\.gradle\caches\transforms-2\files-2.1\a965e02da0dc74b3cb82526fa169fefe\jetified-firebase-auth-19.3.1\AndroidManifest.xml:28:13-44
	android:exported
		ADDED from [com.google.firebase:firebase-auth:19.3.1] C:\Users\thanh\.gradle\caches\transforms-2\files-2.1\a965e02da0dc74b3cb82526fa169fefe\jetified-firebase-auth-19.3.1\AndroidManifest.xml:27:13-36
	android:permission
		ADDED from [com.google.firebase:firebase-auth:19.3.1] C:\Users\thanh\.gradle\caches\transforms-2\files-2.1\a965e02da0dc74b3cb82526fa169fefe\jetified-firebase-auth-19.3.1\AndroidManifest.xml:29:13-102
	android:theme
		ADDED from [com.google.firebase:firebase-auth:19.3.1] C:\Users\thanh\.gradle\caches\transforms-2\files-2.1\a965e02da0dc74b3cb82526fa169fefe\jetified-firebase-auth-19.3.1\AndroidManifest.xml:30:13-72
	tools:replace
		ADDED from [com.google.firebase:firebase-auth:19.3.1] C:\Users\thanh\.gradle\caches\transforms-2\files-2.1\a965e02da0dc74b3cb82526fa169fefe\jetified-firebase-auth-19.3.1\AndroidManifest.xml:31:13-47
	android:name
		ADDED from [com.google.firebase:firebase-auth:19.3.1] C:\Users\thanh\.gradle\caches\transforms-2\files-2.1\a965e02da0dc74b3cb82526fa169fefe\jetified-firebase-auth-19.3.1\AndroidManifest.xml:25:13-85
meta-data#com.google.firebase.components:com.google.firebase.auth.FirebaseAuthRegistrar
ADDED from [com.google.firebase:firebase-auth:19.3.1] C:\Users\thanh\.gradle\caches\transforms-2\files-2.1\a965e02da0dc74b3cb82526fa169fefe\jetified-firebase-auth-19.3.1\AndroidManifest.xml:36:13-38:85
	android:value
		ADDED from [com.google.firebase:firebase-auth:19.3.1] C:\Users\thanh\.gradle\caches\transforms-2\files-2.1\a965e02da0dc74b3cb82526fa169fefe\jetified-firebase-auth-19.3.1\AndroidManifest.xml:38:17-82
	android:name
		ADDED from [com.google.firebase:firebase-auth:19.3.1] C:\Users\thanh\.gradle\caches\transforms-2\files-2.1\a965e02da0dc74b3cb82526fa169fefe\jetified-firebase-auth-19.3.1\AndroidManifest.xml:37:17-109
uses-feature#0x00020000
ADDED from [com.google.android.gms:play-services-maps:15.0.0] C:\Users\thanh\.gradle\caches\transforms-2\files-2.1\fed3b02998b45e6e983973a7406a1a6f\jetified-play-services-maps-15.0.0\AndroidManifest.xml:26:5-28:35
	android:glEsVersion
		ADDED from [com.google.android.gms:play-services-maps:15.0.0] C:\Users\thanh\.gradle\caches\transforms-2\files-2.1\fed3b02998b45e6e983973a7406a1a6f\jetified-play-services-maps-15.0.0\AndroidManifest.xml:27:9-41
	android:required
		ADDED from [com.google.android.gms:play-services-maps:15.0.0] C:\Users\thanh\.gradle\caches\transforms-2\files-2.1\fed3b02998b45e6e983973a7406a1a6f\jetified-play-services-maps-15.0.0\AndroidManifest.xml:28:9-32
uses-permission#android.permission.WAKE_LOCK
ADDED from [com.google.firebase:firebase-iid:17.0.4] C:\Users\thanh\.gradle\caches\transforms-2\files-2.1\c62e8bba72fc9fd55aa45a73c8d1f033\jetified-firebase-iid-17.0.4\AndroidManifest.xml:24:5-68
	android:name
		ADDED from [com.google.firebase:firebase-iid:17.0.4] C:\Users\thanh\.gradle\caches\transforms-2\files-2.1\c62e8bba72fc9fd55aa45a73c8d1f033\jetified-firebase-iid-17.0.4\AndroidManifest.xml:24:22-65
uses-permission#com.google.android.c2dm.permission.RECEIVE
ADDED from [com.google.firebase:firebase-iid:17.0.4] C:\Users\thanh\.gradle\caches\transforms-2\files-2.1\c62e8bba72fc9fd55aa45a73c8d1f033\jetified-firebase-iid-17.0.4\AndroidManifest.xml:26:5-82
	android:name
		ADDED from [com.google.firebase:firebase-iid:17.0.4] C:\Users\thanh\.gradle\caches\transforms-2\files-2.1\c62e8bba72fc9fd55aa45a73c8d1f033\jetified-firebase-iid-17.0.4\AndroidManifest.xml:26:22-79
meta-data#com.google.firebase.components:com.google.firebase.iid.Registrar
ADDED from [com.google.firebase:firebase-iid:17.0.4] C:\Users\thanh\.gradle\caches\transforms-2\files-2.1\c62e8bba72fc9fd55aa45a73c8d1f033\jetified-firebase-iid-17.0.4\AndroidManifest.xml:32:13-34:85
	android:value
		ADDED from [com.google.firebase:firebase-iid:17.0.4] C:\Users\thanh\.gradle\caches\transforms-2\files-2.1\c62e8bba72fc9fd55aa45a73c8d1f033\jetified-firebase-iid-17.0.4\AndroidManifest.xml:34:17-82
	android:name
		ADDED from [com.google.firebase:firebase-iid:17.0.4] C:\Users\thanh\.gradle\caches\transforms-2\files-2.1\c62e8bba72fc9fd55aa45a73c8d1f033\jetified-firebase-iid-17.0.4\AndroidManifest.xml:33:17-96
receiver#com.google.firebase.iid.FirebaseInstanceIdReceiver
ADDED from [com.google.firebase:firebase-iid:17.0.4] C:\Users\thanh\.gradle\caches\transforms-2\files-2.1\c62e8bba72fc9fd55aa45a73c8d1f033\jetified-firebase-iid-17.0.4\AndroidManifest.xml:37:9-44:20
	android:exported
		ADDED from [com.google.firebase:firebase-iid:17.0.4] C:\Users\thanh\.gradle\caches\transforms-2\files-2.1\c62e8bba72fc9fd55aa45a73c8d1f033\jetified-firebase-iid-17.0.4\AndroidManifest.xml:39:13-36
	android:permission
		ADDED from [com.google.firebase:firebase-iid:17.0.4] C:\Users\thanh\.gradle\caches\transforms-2\files-2.1\c62e8bba72fc9fd55aa45a73c8d1f033\jetified-firebase-iid-17.0.4\AndroidManifest.xml:40:13-73
	android:name
		ADDED from [com.google.firebase:firebase-iid:17.0.4] C:\Users\thanh\.gradle\caches\transforms-2\files-2.1\c62e8bba72fc9fd55aa45a73c8d1f033\jetified-firebase-iid-17.0.4\AndroidManifest.xml:38:13-78
intent-filter#action:name:com.google.android.c2dm.intent.RECEIVE
ADDED from [com.google.firebase:firebase-iid:17.0.4] C:\Users\thanh\.gradle\caches\transforms-2\files-2.1\c62e8bba72fc9fd55aa45a73c8d1f033\jetified-firebase-iid-17.0.4\AndroidManifest.xml:41:13-43:29
action#com.google.android.c2dm.intent.RECEIVE
ADDED from [com.google.firebase:firebase-iid:17.0.4] C:\Users\thanh\.gradle\caches\transforms-2\files-2.1\c62e8bba72fc9fd55aa45a73c8d1f033\jetified-firebase-iid-17.0.4\AndroidManifest.xml:42:17-81
	android:name
		ADDED from [com.google.firebase:firebase-iid:17.0.4] C:\Users\thanh\.gradle\caches\transforms-2\files-2.1\c62e8bba72fc9fd55aa45a73c8d1f033\jetified-firebase-iid-17.0.4\AndroidManifest.xml:42:25-78
service#com.google.firebase.iid.FirebaseInstanceIdService
ADDED from [com.google.firebase:firebase-iid:17.0.4] C:\Users\thanh\.gradle\caches\transforms-2\files-2.1\c62e8bba72fc9fd55aa45a73c8d1f033\jetified-firebase-iid-17.0.4\AndroidManifest.xml:50:9-56:19
	android:exported
		ADDED from [com.google.firebase:firebase-iid:17.0.4] C:\Users\thanh\.gradle\caches\transforms-2\files-2.1\c62e8bba72fc9fd55aa45a73c8d1f033\jetified-firebase-iid-17.0.4\AndroidManifest.xml:52:13-36
	android:name
		ADDED from [com.google.firebase:firebase-iid:17.0.4] C:\Users\thanh\.gradle\caches\transforms-2\files-2.1\c62e8bba72fc9fd55aa45a73c8d1f033\jetified-firebase-iid-17.0.4\AndroidManifest.xml:51:13-77
intent-filter#action:name:com.google.firebase.INSTANCE_ID_EVENT
ADDED from [com.google.firebase:firebase-iid:17.0.4] C:\Users\thanh\.gradle\caches\transforms-2\files-2.1\c62e8bba72fc9fd55aa45a73c8d1f033\jetified-firebase-iid-17.0.4\AndroidManifest.xml:53:13-55:29
	android:priority
		ADDED from [com.google.firebase:firebase-iid:17.0.4] C:\Users\thanh\.gradle\caches\transforms-2\files-2.1\c62e8bba72fc9fd55aa45a73c8d1f033\jetified-firebase-iid-17.0.4\AndroidManifest.xml:53:28-51
action#com.google.firebase.INSTANCE_ID_EVENT
ADDED from [com.google.firebase:firebase-iid:17.0.4] C:\Users\thanh\.gradle\caches\transforms-2\files-2.1\c62e8bba72fc9fd55aa45a73c8d1f033\jetified-firebase-iid-17.0.4\AndroidManifest.xml:54:17-80
	android:name
		ADDED from [com.google.firebase:firebase-iid:17.0.4] C:\Users\thanh\.gradle\caches\transforms-2\files-2.1\c62e8bba72fc9fd55aa45a73c8d1f033\jetified-firebase-iid-17.0.4\AndroidManifest.xml:54:25-77
provider#com.google.firebase.provider.FirebaseInitProvider
ADDED from [com.google.firebase:firebase-common:19.3.0] C:\Users\thanh\.gradle\caches\transforms-2\files-2.1\3deb10f8139ef5717b3d54ada2a19ca4\jetified-firebase-common-19.3.0\AndroidManifest.xml:26:9-30:39
	android:authorities
		ADDED from [com.google.firebase:firebase-common:19.3.0] C:\Users\thanh\.gradle\caches\transforms-2\files-2.1\3deb10f8139ef5717b3d54ada2a19ca4\jetified-firebase-common-19.3.0\AndroidManifest.xml:28:13-72
	android:exported
		ADDED from [com.google.firebase:firebase-common:19.3.0] C:\Users\thanh\.gradle\caches\transforms-2\files-2.1\3deb10f8139ef5717b3d54ada2a19ca4\jetified-firebase-common-19.3.0\AndroidManifest.xml:29:13-37
	android:initOrder
		ADDED from [com.google.firebase:firebase-common:19.3.0] C:\Users\thanh\.gradle\caches\transforms-2\files-2.1\3deb10f8139ef5717b3d54ada2a19ca4\jetified-firebase-common-19.3.0\AndroidManifest.xml:30:13-36
	android:name
		ADDED from [com.google.firebase:firebase-common:19.3.0] C:\Users\thanh\.gradle\caches\transforms-2\files-2.1\3deb10f8139ef5717b3d54ada2a19ca4\jetified-firebase-common-19.3.0\AndroidManifest.xml:27:13-77
activity#com.google.android.gms.common.api.GoogleApiActivity
ADDED from [com.google.android.gms:play-services-base:17.1.0] C:\Users\thanh\.gradle\caches\transforms-2\files-2.1\75e7c473eccef2b3a0eec97fa3a7825b\jetified-play-services-base-17.1.0\AndroidManifest.xml:23:9-26:75
	android:exported
		ADDED from [com.google.android.gms:play-services-base:17.1.0] C:\Users\thanh\.gradle\caches\transforms-2\files-2.1\75e7c473eccef2b3a0eec97fa3a7825b\jetified-play-services-base-17.1.0\AndroidManifest.xml:25:13-37
	android:theme
		ADDED from [com.google.android.gms:play-services-base:17.1.0] C:\Users\thanh\.gradle\caches\transforms-2\files-2.1\75e7c473eccef2b3a0eec97fa3a7825b\jetified-play-services-base-17.1.0\AndroidManifest.xml:26:13-72
	android:name
		ADDED from [com.google.android.gms:play-services-base:17.1.0] C:\Users\thanh\.gradle\caches\transforms-2\files-2.1\75e7c473eccef2b3a0eec97fa3a7825b\jetified-play-services-base-17.1.0\AndroidManifest.xml:24:13-79
